{
  "/statementpaBE": {
    "target": "http://localhost:8280",
    "secure": false
  },
  "/portal": {
    "target": "http://localhost:8280",
    "secure": false
  },
  "/portalFE": {
    "target": "http://localhost:8280",
    "secure": false
  },
  "/contactdatabase": {
    "target": "http://localhost:8280",
    "secure": false
  }
}
